^C:\USERS\ANDREY\SOURCE\REPOS\CONSOLEAPPLICATION42\CONSOLEAPPLICATION42\DEBUG\CONSOLEAPPLICATION42.OBJ
C:\USERS\ANDREY\SOURCE\REPOS\CONSOLEAPPLICATION42\DEBUG\CONSOLEAPPLICATION42.ILK
C:\USERS\ANDREY\SOURCE\REPOS\CONSOLEAPPLICATION42\DEBUG\CONSOLEAPPLICATION42.EXE
C:\USERS\ANDREY\SOURCE\REPOS\CONSOLEAPPLICATION42\DEBUG\CONSOLEAPPLICATION42.PDB
